…
Course Data
-----------

We import three spreadsheets from the drive and transform them into the so-called *tidy format*. The tibble `d_course` contains information at the course-level such as in which cluster and concentration(s) they belong, and in which period(s) they are offered. The tibble `d_assessment` indicates which type(s) of assessment each course contains with one row per course-assessment; and the tibble `d_ILO` indicates which AoD(s) the intended learning objectives (ILOs) of the courses cover with one row per course-ILO-AoD.

``` r
d_course <- gsheet2tbl('https://docs.google.com/spreadsheets/d/1soRA1u5zf9oLNirGmZ9yZ7m2ccPa3XFemnxkj5AVRXo/edit#gid=1655700848')
print(d_course)
```

    ## # A tibble: 280 x 11
    ##    `Course ID` `Course Title` Period `Period (additi~ `Period (additi~
    ##    <chr>       <chr>          <chr>  <chr>            <lgl>           
    ##  1 AAM2001     Academic Advi~ Perio~ <NA>             NA              
    ##  2 AAM2002     Academic Advi~ Perio~ <NA>             NA              
    ##  3 AAM2003     Academic Advi~ Perio~ <NA>             NA              
    ##  4 AAM2004     Academic Advi~ Perio~ <NA>             NA              
    ##  5 AAM2005     Academic Advi~ Perio~ <NA>             NA              
    ##  6 AAM2006     Academic Advi~ Perio~ <NA>             NA              
    ##  7 AAM2007     Academic Advi~ Perio~ <NA>             NA              
    ##  8 CAP3000     Capstone       Perio~ Period 4         NA              
    ##  9 COR1002     Philosophy of~ Perio~ Period 5         NA              
    ## 10 COR1003     Contemporary ~ Perio~ Period 4         NA              
    ## # ... with 270 more rows, and 6 more variables: Concentration <chr>,
    ## #   `Concentration (additional)` <chr>, Cluster <chr>, `Missing from ILO
    ## #   File` <dbl>, `Most Recent Catalogue` <chr>, Type <chr>

``` r
d_assessment <- gsheet2tbl('https://docs.google.com/spreadsheets/d/1soRA1u5zf9oLNirGmZ9yZ7m2ccPa3XFemnxkj5AVRXo/edit#gid=1102665750') %>%
  select(- `Comment on Assessment`) %>%
  gather(Assessment, assessment_covered, - `Course ID`, factor_key = T) %>%
  filter(assessment_covered == 1) %>%
  select(- assessment_covered) %>%
  arrange(`Course ID`)
print(d_assessment)
```

    ## # A tibble: 482 x 2
    ##    `Course ID` Assessment    
    ##    <chr>       <fct>         
    ##  1 AAM2001     Oral          
    ##  2 AAM2002     Oral          
    ##  3 AAM2003     Oral          
    ##  4 AAM2004     Oral          
    ##  5 AAM2005     Oral          
    ##  6 AAM2006     Oral          
    ##  7 AAM2007     Oral          
    ##  8 CAP3000     Paper         
    ##  9 CAP3000     Presentation  
    ## 10 CAP3000     Research Prop.
    ## # ... with 472 more rows

``` r
d_ILO <- gsheet2tbl('https://docs.google.com/spreadsheets/d/1soRA1u5zf9oLNirGmZ9yZ7m2ccPa3XFemnxkj5AVRXo/edit#gid=1896457050') %>%
  select(- c(Comments, Comments_for_Jeroen)) %>%
  gather(AoD, AoD_covered, -c(`Course ID`, Objectives), factor_key = T) %>%
  filter(AoD_covered == 1) %>%
  select(- AoD_covered) %>%
  rename(ILO = Objectives) %>%
  arrange(`Course ID`)
print(d_ILO)
```

    ## # A tibble: 1,232 x 3
    ##    `Course ID` ILO         AoD                   
    ##    <chr>       <chr>       <fct>                 
    ##  1 AAM2001     Not Defined Academic Expertise    
    ##  2 AAM2001     Not Defined Reflective Skills     
    ##  3 AAM2001     Not Defined Decision-making Skills
    ##  4 AAM2002     Not Defined Academic Expertise    
    ##  5 AAM2002     Not Defined Reflective Skills     
    ##  6 AAM2002     Not Defined Decision-making Skills
    ##  7 AAM2003     Not Defined Academic Expertise    
    ##  8 AAM2003     Not Defined Reflective Skills     
    ##  9 AAM2003     Not Defined Decision-making Skills
    ## 10 AAM2004     Not Defined Academic Expertise    
    ## # ... with 1,222 more rows
…
In this analysis, we conside that a course can cover an AoD in two ways: a course covers an AoD if one of its ILOs covers it, or if one of its assessments cover it. For instance, if one of ILO of a course states that the students will learn to analyze empirical data in the context of academic research, then the course in question covers the AoD `Research Skills`; and if one of the assessment is a group presentation, then the course also covers the AoD `Collaborative Skills` and `Communication Skills`.

#### AoD from ILOs

(For this section we use: `d_ILO`-indicates which AoD(s) the intended learning objectives (ILOs) of the courses cover with one row per course-ILO-AoD)

In order to determine which AoD each course covers with its ILOs, we first eliminate the AoD that are not covered by the ILOs, and then we keep only one instance of each combination of course and AoD in case a course had several ILOs covering the same AoD.

``` r
d_AoD_ILO <- distinct(d_ILO, `Course ID`, AoD)
print(d_AoD_ILO)
```

    ## # A tibble: 681 x 2
    ##    `Course ID` AoD                   
    ##    <chr>       <fct>                 
    ##  1 AAM2001     Academic Expertise    
    ##  2 AAM2001     Reflective Skills     
    ##  3 AAM2001     Decision-making Skills
    ##  4 AAM2002     Academic Expertise    
    ##  5 AAM2002     Reflective Skills     
    ##  6 AAM2002     Decision-making Skills
    ##  7 AAM2003     Academic Expertise    
    ##  8 AAM2003     Reflective Skills     
    ##  9 AAM2003     Decision-making Skills
    ## 10 AAM2004     Academic Expertise    
    ## # ... with 671 more rows
…
  if(length(AoD) >= 1) d_AoD_assessment <- rbind(d_AoD_assessment,
                                                 as_tibble(cbind(observation,
                                                                 AoD)))
}
rm(map_assessment_AoD, observation, AoD, AoD_covered, assessments, i)
```

Next, we keep ony one copy of each distinct combination of course and AoD in case a course had several assessments covering the same AoD (this is analogous to what we did with the tibble `d_AoD_ILO`).

``` r
d_AoD_assessment <- distinct(d_AoD_assessment, `Course ID`, AoD)
print(d_AoD_assessment)
```

    ## # A tibble: 732 x 2
    ##    `Course ID` AoD                     
    ##    <chr>       <fct>                   
    ##  1 AAM2001     Communication Skills    
    ##  2 AAM2002     Communication Skills    
    ##  3 AAM2003     Communication Skills    
    ##  4 AAM2004     Communication Skills    
    ##  5 AAM2005     Communication Skills    
    ##  6 AAM2006     Communication Skills    
    ##  7 AAM2007     Communication Skills    
    ##  8 CAP3000     Problem Solving Skills  
    ##  9 CAP3000     Critical Thinking Skills
    ## 10 CAP3000     Communication Skills    
    ## # ... with 722 more rows
#### Combining AoD from ILOs and from assessments

Finally, we can use a `rbind` to combine the two tibbles `d_AoD_ILO` and `d_AoD_assessment`. We also use `distinct` in case a course covers an AoD with both its ILOS and its assessments.

``` r
d_AoD <- rbind(d_AoD_ILO,
               d_AoD_assessment) %>%
  distinct %>%
  arrange(`Course ID`)

rm(d_AoD_ILO, d_AoD_assessment)
print(d_AoD)
```

    ## # A tibble: 1,231 x 2
    ##    `Course ID` AoD                   
    ##    <chr>       <fct>                 
    ##  1 AAM2001     Academic Expertise    
    ##  2 AAM2001     Reflective Skills     
    ##  3 AAM2001     Decision-making Skills
    ##  4 AAM2001     Communication Skills  
    ##  5 AAM2002     Academic Expertise    
    ##  6 AAM2002     Reflective Skills     
    ##  7 AAM2002     Decision-making Skills
    ##  8 AAM2002     Communication Skills  
    ##  9 AAM2003     Academic Expertise    
    ## 10 AAM2003     Reflective Skills     
    ## # ... with 1,221 more rows
…
d_AoD_detail <- d_AoD %>%
  group_by(`Course ID`) %>%
  summarise(n_AoD = n(),
            `AoD Covered` = paste(AoD, collapse = ", "))

d_course_detail <- d_ILO_detail %>%
  full_join(d_assessment_detail, by = "Course ID") %>%
  full_join(d_AoD_detail       , by = "Course ID")

rm(d_ILO_detail, d_assessment_detail, d_AoD_detail)
print(d_course_detail)
```

    ## # A tibble: 280 x 6
    ##    `Course ID` n_ILO n_assessment `Assessments Cove~ n_AoD `AoD Covered`   
    ##    <chr>       <int>        <int> <chr>              <int> <chr>           
    ##  1 AAM2001         1            1 Oral                   4 Academic Expert~
    ##  2 AAM2002         1            1 Oral                   4 Academic Expert~
    ##  3 AAM2003         1            1 Oral                   4 Academic Expert~
    ##  4 AAM2004         1            1 Oral                   4 Academic Expert~
    ##  5 AAM2005         1            1 Oral                   4 Academic Expert~
    ##  6 AAM2006         1            1 Oral                   4 Academic Expert~
    ##  7 AAM2007         1            1 Oral                   4 Academic Expert~
    ##  8 CAP3000         3            3 Paper, Presentati~    10 Advanced Knowle~
    ##  9 COR1002         3            2 Essay, Written Ex~     7 Core, Elementar~
    ## 10 COR1003         3            3 Paper, Written Ex~     7 Core, Elementar~
    ## # ... with 270 more rows

``` r
d_course <- d_course %>%
  full_join(d_course_detail, by = "Course ID") %>%
  select(`Course ID`, `Course Title`, Cluster,
         n_ILO,
         n_assessment, `Assessments Covered`,
         n_AoD, `AoD Covered`, 
         everything())

rm(d_course_detail)
print(d_course)
```

    ## # A tibble: 280 x 16
    ##    `Course ID` `Course Title` Cluster n_ILO n_assessment `Assessments Co~
    ##    <chr>       <chr>          <chr>   <int>        <int> <chr>           
    ##  1 AAM2001     Academic Advi~ <NA>        1            1 Oral            
    ##  2 AAM2002     Academic Advi~ <NA>        1            1 Oral            
    ##  3 AAM2003     Academic Advi~ <NA>        1            1 Oral            
    ##  4 AAM2004     Academic Advi~ <NA>        1            1 Oral            
    ##  5 AAM2005     Academic Advi~ <NA>        1            1 Oral            
    ##  6 AAM2006     Academic Advi~ <NA>        1            1 Oral            
    ##  7 AAM2007     Academic Advi~ <NA>        1            1 Oral            
    ##  8 CAP3000     Capstone       <NA>        3            3 Paper, Presenta~
    ##  9 COR1002     Philosophy of~ Philos~     3            2 Essay, Written ~
    ## 10 COR1003     Contemporary ~ History     3            3 Paper, Written ~
    ## # ... with 270 more rows, and 10 more variables: n_AoD <int>, `AoD
    ## #   Covered` <chr>, Period <chr>, `Period (additional)` <chr>, `Period
    ## #   (additional bis)` <lgl>, Concentration <chr>, `Concentration
    ## #   (additional)` <chr>, `Missing from ILO File` <dbl>, `Most Recent
    ## #   Catalogue` <chr>, Type <chr>
…
Finally, we add a series of informative variable at the course level.

``` r
d_course <- d_course %>%
  mutate(
    Letters = substring(`Course ID`, 1, 3),
    Number  = as.numeric(substring(`Course ID`, 4, 7)),
    Level   = case_when(between(Number, 1000, 1999) ~ "Introductory",
                        between(Number, 2000, 2999) ~ "Intermediate",
                        between(Number, 3000, 3999) ~ "Advanced"    ))

print(select(d_course, `Course ID`, Letters, Number, Level))
```

    ## # A tibble: 284 x 4
    ##    `Course ID` Letters Number Level       
    ##    <chr>       <chr>    <dbl> <chr>       
    ##  1 AAM2001     AAM       2001 Intermediate
    ##  2 AAM2002     AAM       2002 Intermediate
    ##  3 AAM2003     AAM       2003 Intermediate
    ##  4 AAM2004     AAM       2004 Intermediate
    ##  5 AAM2005     AAM       2005 Intermediate
    ##  6 AAM2006     AAM       2006 Intermediate
    ##  7 AAM2007     AAM       2007 Intermediate
    ##  8 CAP3000     CAP       3000 Advanced    
    ##  9 COR1002     COR       1002 Introductory
    ## 10 COR1003     COR       1003 Introductory
    ## # ... with 274 more rows
…
  } # close for-loop (page)
  
} # close for-loop (n)

rm(corpus_catalogues,
   n_catalogue, academic_years, course_code, content_to_exclude,
   n, cat,
   page_overview_start, page_overview_end,
   pages_to_exclude, cat_overview,
   first_three_letters, first_pages_overview,
   page, overview, code, year)
print(d_description)
```

    ## # A tibble: 831 x 4
    ##    `Course ID` `Academic Year` Overview                         Description
    ##    <chr>       <chr>           <chr>                            <lgl>      
    ##  1 COR1002     2014-2015       "COR1002 - Philosophy of Scienc~ NA         
    ##  2 COR1003     2014-2015       "COR1003 - Contemporary World H~ NA         
    ##  3 COR1004     2014-2015       "COR1004 - Political Philosophy~ NA         
    ##  4 COR1005     2014-2015       "COR1005 - Modeling Nature\r\nC~ NA         
    ##  5 HUM1003     2014-2015       "HUM1003 - Cultural Studies I: ~ NA         
    ##  6 HUM1007     2014-2015       "HUM1007 - Introduction to Phil~ NA         
    ##  7 HUM1010     2014-2015       "HUM1010 - Common Foundations o~ NA         
    ##  8 HUM1011     2014-2015       "HUM1011 - Introduction to Art;~ NA         
    ##  9 HUM1012     2014-2015       "HUM1012 - Pop Songs and Poetry~ NA         
    ## 10 HUM1013     2014-2015       "HUM1013 - The Idea of Europe: ~ NA         
    ## # ... with 821 more rows
…
    ## Warning: Unknown or uninitialised column: 'Calendar Year'.

    ## [1] "line_end irregular for UGR3003 in catalogue "

    ## Warning: Unknown or uninitialised column: 'Calendar Year'.

    ## [1] "line_end irregular for UGR3005 in catalogue "

``` r
rm(symbol_to_line, start_descrip, end_descrip,
   course, overview, overview_by_line, line_start, line_end, description)
print(d_description)
```

    ## # A tibble: 831 x 4
    ##    `Course ID` `Academic Year` Overview              Description           
    ##    <chr>       <chr>           <chr>                 <chr>                 
    ##  1 COR1002     2014-2015       "COR1002 - Philosoph~ Starting from classic~
    ##  2 COR1003     2014-2015       "COR1003 - Contempor~ The course intends to~
    ##  3 COR1004     2014-2015       "COR1004 - Political~ Politics is a complex~
    ##  4 COR1005     2014-2015       "COR1005 - Modeling ~ The aim of the course~
    ##  5 HUM1003     2014-2015       "HUM1003 - Cultural ~ Cultural Studies is a~
    ##  6 HUM1007     2014-2015       "HUM1007 - Introduct~ One of the greatest a~
    ##  7 HUM1010     2014-2015       "HUM1010 - Common Fo~ What do Europeans hav~
    ##  8 HUM1011     2014-2015       "HUM1011 - Introduct~ The traditional term ~
    ##  9 HUM1012     2014-2015       "HUM1012 - Pop Songs~ This course is based ~
    ## 10 HUM1013     2014-2015       "HUM1013 - The Idea ~ This course deals wit~
    ## # ... with 821 more rows
…
Since we want to use tools from dplyr and tidytext we must first transform our corpus into a dataframe.

``` r
d_manual <- tidy(corpus_manuals) %>%
  select(id, text) %>%
  mutate(`Course ID` = substring(id, 1, 7)) %>%
  select(-id) %>%
  rename(Manual = text)

rm(corpus_manuals)
print(d_manual)
```

    ## # A tibble: 153 x 2
    ##    Manual                                                       `Course ID`
    ##    <chr>                                                        <chr>      
    ##  1 "P h i l o s o p hy o f S c i e n c e\r\n                  ~ COR1002    
    ##  2 "General information\r\nIntroduction\r\nNew things are happ~ COR1003    
    ##  3 "University College Maastricht. 2017-18, Period 2\r\n      ~ COR1004    
    ##  4 "Theory Construction\r\nand\r\nModelling Techniques\r\nCode~ COR1005    
    ##  5 "  Cultural Studies I\r\nDoing Cultural Studies\r\n Univers~ HUM1003    
    ##  6 "AN INTRODUCTORY COURSE TO PHILOSOPHY\n                    ~ HUM1007    
    ##  7 "                 HU1010\r\nCOMMON FOUNDATIONS OF LAW IN EU~ HUM1010    
    ##  8 "Introduction to Art\r\nRepresentations, Performances and I~ HUM1011    
    ##  9 "Pop Songs and Poetry: Theory and Analysis\r\n            C~ HUM1012    
    ## 10 "\n              The Idea of Europe:\r\nThe Intellectual Hi~ HUM1013    
    ## # ... with 143 more rows
…
dictionary <- select(d_overview, `Course ID`, word) %>%
  rbind(d_manual) %>% 
  distinct(word) %>%
  mutate(word_stem = purrr::map_chr(.x = word,
                                    .f = stem_hunspell))

# terms for which the stem differs from the original word
filter(dictionary, word != word_stem)
```

    ## # A tibble: 11,129 x 2
    ##    word        word_stem 
    ##    <chr>       <chr>     
    ##  1 humanities  humanity  
    ##  2 sciences    science   
    ##  3 recommended commend   
    ##  4 is          i         
    ##  5 strongly    strong    
    ##  6 objective   object    
    ##  7 students    student   
    ##  8 foundations foundation
    ##  9 starting    start     
    ## 10 positions   position  
    ## # ... with 11,119 more rows
…
``` r
stem_with_dictionary <- function(data) data %>%
                                         left_join(dictionary, by = "word") %>%
                                         rename(word_original = word,
                                                word = word_stem)
  
d_description <- stem_with_dictionary(d_description)
d_overview <- stem_with_dictionary(d_overview)
d_manual <- stem_with_dictionary(d_manual)

rm(stem_hunspell, stem_with_dictionary)
print(d_description) # See starting - start
```

    ## # A tibble: 185,054 x 4
    ##    `Course ID` `Academic Year` word_original word       
    ##    <chr>       <chr>           <chr>         <chr>      
    ##  1 COR1002     2014-2015       starting      start      
    ##  2 COR1002     2014-2015       from          from       
    ##  3 COR1002     2014-2015       classical     classical  
    ##  4 COR1002     2014-2015       positions     position   
    ##  5 COR1002     2014-2015       on            on         
    ##  6 COR1002     2014-2015       the           the        
    ##  7 COR1002     2014-2015       objectivity   objectivity
    ##  8 COR1002     2014-2015       and           and        
    ##  9 COR1002     2014-2015       methodology   methodology
    ## 10 COR1002     2014-2015       of            of         
    ## # ... with 185,044 more rows
…
remove_sw <- function(data) data %>%
  filter(! word %in% c(stop_words$word, sw_own))

d_description <- remove_sw(d_description)
d_overview <- remove_sw(d_overview)
d_manual <- remove_sw(d_manual)

rm(sw_own, remove_sw)
print(d_description) # stop words (on, the, of, etc, are excluded)
```

    ## # A tibble: 83,928 x 4
    ##    `Course ID` `Academic Year` word_original word       
    ##    <chr>       <chr>           <chr>         <chr>      
    ##  1 COR1002     2014-2015       starting      start      
    ##  2 COR1002     2014-2015       classical     classical  
    ##  3 COR1002     2014-2015       positions     position   
    ##  4 COR1002     2014-2015       objectivity   objectivity
    ##  5 COR1002     2014-2015       methodology   methodology
    ##  6 COR1002     2014-2015       science       science    
    ##  7 COR1002     2014-2015       logical       logical    
    ##  8 COR1002     2014-2015       empiricism    empiricism 
    ##  9 COR1002     2014-2015       critical      critical   
    ## 10 COR1002     2014-2015       rationalism   rationalism
    ## # ... with 83,918 more rows
…
