…
  # Best model
  mutate(coefi_v = list(m_lasso, index_best) %>% pmap(~ ..1[["beta"]][,..2]),
         coefi_v = coefi_v %>% map(~ tibble(topic = names(.), weight = .)),
         coefi_m = list(m_lasso, lambda_min) %>% pmap(coef)) %>% 
  
  # extract coefficients
  unnest(coefi_v) %>%
  
  select(target, topic, weight)

print(fit_lasso_topic)
```

    ## # A tibble: 3,960 x 3
    ##    target  topic      weight
    ##    <chr>   <chr>       <dbl>
    ##  1 HUM2003 Topic_1   0.275  
    ##  2 HUM2003 Topic_10  0.0644 
    ##  3 HUM2003 Topic_11  0.150  
    ##  4 HUM2003 Topic_12  0.156  
    ##  5 HUM2003 Topic_13  0.0412 
    ##  6 HUM2003 Topic_14 -0.0349 
    ##  7 HUM2003 Topic_15 -0.00695
    ##  8 HUM2003 Topic_16  0.102  
    ##  9 HUM2003 Topic_17 -0.0238 
    ## 10 HUM2003 Topic_18  0.172  
    ## # ... with 3,950 more rows
…
  # aggregate prep_score
  group_by(target, `Preparatory Courses`) %>%
  summarize(prep_score = sum(prep_score)) %>%
  
  # identify top 15 preparation courses for each course
  group_by(target) %>%
  top_n(15, prep_score) %>%
  arrange(target, desc(prep_score))

print(d_prep)
```

    ## # A tibble: 1,980 x 3
    ## # Groups:   target [132]
    ##    target  `Preparatory Courses`                                 prep_score
    ##    <chr>   <chr>                                                      <dbl>
    ##  1 CAP3000 SSC1025                                                   0.252 
    ##  2 CAP3000 SCI2040                                                   0.200 
    ##  3 CAP3000 Sleep and Sleep Disorders                                 0.199 
    ##  4 CAP3000 COR1004                                                   0.154 
    ##  5 CAP3000 Comparative Politics and Government                       0.140 
    ##  6 CAP3000 International Relations: Contemporary Issues and Act~     0.105 
    ##  7 CAP3000 Power and Democracy                                       0.0927
    ##  8 CAP3000 HUM1012                                                   0.0924
    ##  9 CAP3000 SSC1006                                                   0.0914
    ## 10 CAP3000 VSC3101                                                   0.0803
    ## # ... with 1,970 more rows
…
