…
  compute_conf_lift %>%
  
  # lhs not, rhs low
  filter(
    str_detect(rhs, "fail")
    )

print(SR$TPF)
```

    ## # A tibble: 18,501 x 14
    ##    lhs   lhs_course lhs_outcome rhs   rhs_course rhs_outcome     n support
    ##    <chr> <chr>      <chr>       <chr> <chr>      <chr>       <int>   <dbl>
    ##  1 HUM1~ HUM1003    not         HUM1~ HUM1007    fail           23 9.18e-3
    ##  2 HUM1~ HUM1003    not         HUM1~ HUM1010    fail            2 7.98e-4
    ##  3 HUM1~ HUM1003    not         HUM1~ HUM1011    fail           10 3.99e-3
    ##  4 HUM1~ HUM1003    not         HUM1~ HUM1012    fail            3 1.20e-3
    ##  5 HUM1~ HUM1003    not         HUM1~ HUM1013    fail           15 5.99e-3
    ##  6 HUM1~ HUM1003    not         HUM1~ HUM1014    fail            3 1.20e-3
    ##  7 HUM1~ HUM1003    not         HUM2~ HUM2003    fail           35 1.40e-2
    ##  8 HUM1~ HUM1003    not         HUM2~ HUM2005    fail           14 5.59e-3
    ##  9 HUM1~ HUM1003    not         HUM2~ HUM2007    fail            4 1.60e-3
    ## 10 HUM1~ HUM1003    not         HUM2~ HUM2008    fail            4 1.60e-3
    ## # ... with 18,491 more rows, and 6 more variables: rate.fail <dbl>,
    ## #   rhs.support <dbl>, lhs.rhsTake.support <dbl>, lhs.rhsTake.count <dbl>,
    ## #   confidence <dbl>, lift <dbl>
…
SR <- lapply(
  X   = SR,
  FUN = edit_rules
  )
```

``` r
print(AR$TPF)
```

    ## # A tibble: 12,935 x 9
    ##    lhs   rhs   support count confidence rhs.support  lift lhs.rhsTake.sup~
    ##    <chr> <chr>   <dbl> <dbl>      <dbl>       <dbl> <dbl>            <dbl>
    ##  1 SSC2~ SSC1~  0.0587   147      0.175       0.213 0.822            0.336
    ##  2 HUM2~ SSC1~  0.0587   147      0.174       0.213 0.818            0.337
    ##  3 UGR3~ SSC1~  0.0587   147      0.174       0.213 0.816            0.338
    ##  4 SCI3~ SSC1~  0.0587   147      0.173       0.213 0.812            0.340
    ##  5 HUM3~ SSC1~  0.0587   147      0.173       0.213 0.814            0.339
    ##  6 SCI3~ SSC1~  0.0587   147      0.173       0.213 0.813            0.339
    ##  7 SSC3~ SSC1~  0.0587   147      0.172       0.213 0.809            0.341
    ##  8 UGR2~ SSC1~  0.0583   146      0.180       0.213 0.845            0.324
    ##  9 HUM2~ SSC1~  0.0583   146      0.173       0.213 0.811            0.338
    ## 10 SCI2~ SSC1~  0.0583   146      0.175       0.213 0.824            0.332
    ## # ... with 12,925 more rows, and 1 more variable: lhs.rhsTake.count <dbl>

``` r
print(SR$TPF)
```

    ## # A tibble: 13,123 x 9
    ##    lhs   rhs   support count confidence rhs.support  lift lhs.rhsTake.sup~
    ##    <chr> <chr>   <dbl> <dbl>      <dbl>       <dbl> <dbl>            <dbl>
    ##  1 HUM1~ SSC1~  0.0603   151      0.177       0.213 0.832            0.340
    ##  2 HUM1~ SSC1~  0.0603   151      0.177       0.213 0.834            0.340
    ##  3 HUM2~ SSC1~  0.0603   151      0.177       0.213 0.833            0.340
    ##  4 HUM2~ SSC1~  0.0603   151      0.177       0.213 0.832            0.340
    ##  5 HUM2~ SSC1~  0.0603   151      0.177       0.213 0.831            0.341
    ##  6 HUM2~ SSC1~  0.0603   151      0.177       0.213 0.832            0.340
    ##  7 HUM2~ SSC1~  0.0603   151      0.177       0.213 0.830            0.341
    ##  8 HUM2~ SSC1~  0.0603   151      0.177       0.213 0.832            0.340
    ##  9 HUM2~ SSC1~  0.0603   151      0.176       0.213 0.829            0.342
    ## 10 HUM2~ SSC1~  0.0603   151      0.176       0.213 0.827            0.342
    ## # ... with 13,113 more rows, and 1 more variable: lhs.rhsTake.count <dbl>
