…
}

# Bet Distribution
LDA_description_10 %>% prepare_data_LDA_beta
```

    ## Warning: `lang()` is soft-deprecated as of rlang 0.2.0.
    ## Please use `call2()` instead
    ## This warning is displayed once per session.

    ## Warning: `new_overscope()` is soft-deprecated as of rlang 0.2.0.
    ## Please use `new_data_mask()` instead
    ## This warning is displayed once per session.

    ## # A tibble: 100 x 3
    ##    topic   term          beta
    ##    <chr>   <chr>        <dbl>
    ##  1 Topic 1 human      0.0171 
    ##  2 Topic 1 study      0.0132 
    ##  3 Topic 1 theory     0.0131 
    ##  4 Topic 1 psychology 0.0118 
    ##  5 Topic 1 social     0.0110 
    ##  6 Topic 1 cuss       0.0101 
    ##  7 Topic 1 gender     0.00878
    ##  8 Topic 1 process    0.00751
    ##  9 Topic 1 cell       0.00706
    ## 10 Topic 1 role       0.00609
    ## # ... with 90 more rows

``` r
# Gamma Distribution
LDA_description_10 %>% prepare_data_LDA_gamma(level = Cluster)
```

    ## Warning: `overscope_eval_next()` is soft-deprecated as of rlang 0.2.0.
    ## Please use `eval_tidy()` with a data mask instead
    ## This warning is displayed once per session.

    ## Warning: `chr_along()` is soft-deprecated as of rlang 0.2.0.
    ## This warning is displayed once per session.

    ## # A tibble: 101 x 3
    ##    facet               topic   gamma
    ##    <chr>               <chr>   <dbl>
    ##  1 Biomedical Sciences Topic 9 7.23 
    ##  2 Biomedical Sciences Topic 1 6.09 
    ##  3 Biomedical Sciences Topic 3 1.42 
    ##  4 Biomedical Sciences Topic 2 0.926
    ##  5 Biomedical Sciences Topic 6 0.224
    ##  6 Biomedical Sciences Topic 4 0.115
    ##  7 Business            Topic 6 2.00 
    ##  8 Business            Topic 8 2.00 
    ##  9 Business            Topic 3 2.00 
    ## 10 Business            Topic 7 1.85 
    ## # ... with 91 more rows
…
